<?xml version="1.0" encoding="utf-8"?>
<svg id="master-artboard" viewBox="0 0 1400 980" version="1.1" x="0px" y="0px" style="enable-background:new 0 0 1400 980;" width="1400px" height="980px" xmlns="http://www.w3.org/2000/svg">
  <g>
    <circle style="fill: rgb(255, 255, 255); paint-order: fill; stroke-width: 0.753583px; stroke: rgb(0, 0, 0);" cx="571.669" cy="409.201" r="75"/>
    <path d="M 549.671 391.545 C 549.625 391.545 549.578 391.529 549.541 391.496 C 549.459 391.422 549.449 391.295 549.521 391.211 C 552.899 387.25 557.296 384.421 562.237 383.03 C 562.343 382.999 562.452 383.064 562.481 383.171 C 562.511 383.278 562.448 383.389 562.343 383.419 C 557.478 384.789 553.148 387.574 549.821 391.475 C 549.782 391.521 549.727 391.545 549.671 391.545 Z" fill="rgb(0,129,161)"/>
    <path d="M 588.275 426.458 C 588.227 426.458 588.179 426.44 588.141 426.405 C 588.06 426.329 588.054 426.202 588.129 426.119 C 588.433 425.78 588.733 425.429 589.02 425.074 C 589.09 424.988 589.214 424.975 589.299 425.046 C 589.384 425.117 589.396 425.244 589.326 425.33 C 589.036 425.69 588.731 426.047 588.422 426.392 C 588.382 426.435 588.329 426.458 588.275 426.458 Z" fill="rgb(0,129,161)"/>
    <path d="M 583.993 430.282 C 583.931 430.282 583.869 430.252 583.83 430.196 C 583.767 430.105 583.789 429.979 583.879 429.915 C 584.65 429.366 585.399 428.768 586.107 428.136 C 586.189 428.063 586.314 428.071 586.387 428.155 C 586.46 428.238 586.452 428.366 586.369 428.439 C 585.651 429.081 584.89 429.689 584.107 430.246 C 584.072 430.271 584.032 430.282 583.993 430.282 Z M 554.479 430.338 C 554.44 430.338 554.401 430.326 554.366 430.302 C 553.581 429.748 552.818 429.143 552.097 428.503 C 552.014 428.431 552.006 428.303 552.078 428.219 C 552.15 428.136 552.276 428.126 552.358 428.199 C 553.067 428.829 553.82 429.425 554.592 429.971 C 554.683 430.034 554.705 430.16 554.642 430.251 C 554.604 430.308 554.542 430.338 554.479 430.338 Z M 578.991 433.061 C 578.913 433.061 578.839 433.014 578.807 432.936 C 578.766 432.833 578.814 432.715 578.916 432.673 C 579.787 432.309 580.647 431.893 581.472 431.434 C 581.569 431.38 581.689 431.416 581.742 431.514 C 581.795 431.612 581.759 431.735 581.663 431.788 C 580.824 432.254 579.951 432.677 579.066 433.046 C 579.042 433.057 579.016 433.061 578.991 433.061 Z M 559.493 433.099 C 559.468 433.099 559.442 433.094 559.418 433.084 C 558.533 432.719 557.658 432.299 556.816 431.836 C 556.72 431.782 556.684 431.66 556.737 431.562 C 556.789 431.464 556.909 431.428 557.006 431.48 C 557.834 431.937 558.696 432.351 559.567 432.71 C 559.669 432.752 559.718 432.869 559.677 432.973 C 559.645 433.051 559.571 433.099 559.493 433.099 Z M 573.511 434.65 C 573.416 434.65 573.332 434.581 573.315 434.482 C 573.297 434.372 573.37 434.268 573.478 434.25 C 574.407 434.091 575.336 433.877 576.24 433.615 C 576.348 433.584 576.455 433.647 576.485 433.754 C 576.515 433.861 576.454 433.973 576.349 434.003 C 575.431 434.27 574.487 434.486 573.544 434.648 C 573.533 434.649 573.522 434.65 573.511 434.65 Z M 564.982 434.667 C 564.972 434.667 564.961 434.667 564.95 434.665 C 564.005 434.507 563.06 434.294 562.14 434.031 C 562.035 434.001 561.973 433.89 562.003 433.782 C 562.032 433.675 562.141 433.612 562.247 433.642 C 563.154 433.901 564.084 434.111 565.014 434.266 C 565.122 434.284 565.196 434.388 565.178 434.498 C 565.162 434.597 565.077 434.667 564.982 434.667 Z M 569.196 435.015 C 568.733 435.015 568.267 435.003 567.81 434.978 C 567.701 434.972 567.617 434.877 567.622 434.766 C 567.628 434.655 567.723 434.56 567.831 434.575 C 568.762 434.625 569.723 434.623 570.664 434.569 C 570.784 434.564 570.868 434.648 570.874 434.759 C 570.88 434.871 570.796 434.966 570.687 434.972 C 570.193 435.001 569.691 435.015 569.196 435.015 Z" fill="rgb(0,129,161)"/>
    <path d="M 550.174 426.52 C 550.121 426.52 550.068 426.498 550.028 426.455 C 549.721 426.115 549.415 425.759 549.12 425.396 C 549.051 425.31 549.062 425.183 549.147 425.112 C 549.231 425.041 549.356 425.053 549.426 425.139 C 549.717 425.496 550.017 425.847 550.321 426.182 C 550.395 426.264 550.389 426.391 550.309 426.467 C 550.271 426.503 550.222 426.52 550.174 426.52 Z" fill="rgb(0,129,161)"/>
    <path d="M 588.416 391.192 C 588.362 391.192 588.307 391.17 588.268 391.126 C 585.29 387.756 581.493 385.223 577.288 383.803 C 577.184 383.768 577.128 383.653 577.162 383.548 C 577.197 383.441 577.31 383.385 577.413 383.419 C 581.684 384.862 585.539 387.434 588.563 390.856 C 588.637 390.939 588.63 391.066 588.549 391.141 C 588.511 391.175 588.464 391.192 588.416 391.192 Z" fill="rgb(0,129,161)"/>
    <path d="M 574.712 381.094 C 573.556 381.094 572.617 382.05 572.617 383.225 C 572.617 384.399 573.556 385.355 574.712 385.355 C 575.867 385.355 576.807 384.399 576.807 383.225 C 576.807 382.05 575.867 381.094 574.712 381.094 Z M 574.712 385.759 C 573.337 385.759 572.22 384.622 572.22 383.225 C 572.22 381.827 573.337 380.691 574.712 380.691 C 576.086 380.691 577.204 381.827 577.204 383.225 C 577.204 384.622 576.086 385.759 574.712 385.759 Z" fill="rgb(0,129,161)"/>
    <path d="M 523.658 401.653 C 523.617 401.653 523.575 401.65 523.532 401.644 C 523.077 401.574 522.764 401.142 522.832 400.679 C 523.142 398.592 523.592 396.507 524.168 394.484 C 526.362 386.796 530.481 379.721 536.083 374.025 C 536.408 373.694 536.937 373.694 537.263 374.025 C 537.588 374.356 537.588 374.894 537.263 375.225 C 531.859 380.719 527.885 387.542 525.771 394.957 C 525.214 396.908 524.781 398.918 524.482 400.932 C 524.419 401.352 524.064 401.653 523.658 401.653 Z" fill="rgb(0,129,161)"/>
    <path d="M 569.35 455.692 C 556.783 455.692 544.969 450.716 536.083 441.68 C 531.854 437.379 528.515 432.393 526.162 426.859 C 525.979 426.428 526.173 425.929 526.596 425.743 C 527.018 425.557 527.51 425.755 527.693 426.185 C 529.963 431.522 533.183 436.332 537.263 440.481 C 545.833 449.195 557.229 453.995 569.35 453.995 C 581.47 453.995 592.865 449.195 601.437 440.481 C 604.745 437.116 607.506 433.29 609.641 429.107 C 610.934 426.574 612 423.9 612.809 421.16 C 612.942 420.712 613.407 420.458 613.848 420.592 C 614.289 420.726 614.539 421.199 614.407 421.648 C 613.569 424.489 612.463 427.261 611.121 429.889 C 608.908 434.226 606.046 438.193 602.617 441.68 C 593.73 450.716 581.916 455.692 569.35 455.692 Z" fill="rgb(0,129,161)"/>
    <path d="M 615.167 402.562 C 614.755 402.562 614.396 402.25 614.341 401.823 C 613.033 391.677 608.572 382.479 601.437 375.225 C 601.111 374.894 601.111 374.356 601.437 374.025 C 601.762 373.694 602.291 373.694 602.617 374.025 C 610.013 381.547 614.64 391.083 615.995 401.603 C 616.055 402.068 615.733 402.493 615.276 402.554 C 615.24 402.559 615.204 402.562 615.167 402.562 Z" fill="rgb(0,129,161)"/>
    <path d="M 540.777 371.766 C 540.53 371.766 540.286 371.655 540.122 371.443 C 539.837 371.075 539.899 370.542 540.261 370.252 C 540.705 369.896 541.156 369.548 541.613 369.208 C 541.985 368.932 542.507 369.014 542.779 369.392 C 543.05 369.77 542.97 370.301 542.597 370.578 C 542.157 370.905 541.722 371.241 541.293 371.584 C 541.14 371.707 540.959 371.766 540.777 371.766 Z" fill="rgb(0,129,161)"/>
    <path d="M 564.564 361.959 C 564.142 361.959 563.78 361.634 563.735 361.198 C 563.689 360.731 564.022 360.315 564.48 360.267 C 565.648 360.145 566.836 360.066 568.012 360.033 C 568.469 360.016 568.857 360.388 568.87 360.857 C 568.882 361.325 568.519 361.715 568.059 361.729 C 566.924 361.76 565.777 361.837 564.651 361.954 C 564.621 361.957 564.593 361.959 564.564 361.959 Z M 574.982 362.056 C 574.949 362.056 574.915 362.054 574.88 362.049 C 573.757 361.91 572.611 361.813 571.476 361.76 C 571.015 361.738 570.66 361.342 570.681 360.873 C 570.702 360.405 571.091 360.04 571.552 360.065 C 572.729 360.12 573.917 360.221 575.082 360.365 C 575.539 360.422 575.865 360.845 575.809 361.309 C 575.757 361.74 575.398 362.056 574.982 362.056 Z M 557.725 363.209 C 557.353 363.209 557.015 362.955 556.917 362.573 C 556.802 362.12 557.07 361.657 557.516 361.539 C 558.655 361.239 559.818 360.98 560.974 360.769 C 561.429 360.686 561.862 360.993 561.943 361.454 C 562.025 361.916 561.723 362.356 561.269 362.439 C 560.154 362.642 559.032 362.892 557.934 363.182 C 557.864 363.201 557.794 363.209 557.725 363.209 Z M 581.8 363.435 C 581.725 363.435 581.65 363.425 581.575 363.403 C 580.483 363.094 579.365 362.823 578.253 362.598 C 577.801 362.506 577.508 362.06 577.598 361.6 C 577.688 361.141 578.128 360.841 578.579 360.934 C 579.732 361.167 580.891 361.448 582.023 361.769 C 582.468 361.895 582.727 362.363 582.603 362.815 C 582.5 363.19 582.165 363.435 581.8 363.435 Z M 551.15 365.495 C 550.826 365.495 550.518 365.303 550.383 364.981 C 550.201 364.551 550.397 364.051 550.821 363.867 C 551.901 363.395 553.014 362.961 554.125 362.574 C 554.562 362.424 555.035 362.659 555.184 363.102 C 555.333 363.546 555.101 364.028 554.664 364.179 C 553.593 364.552 552.521 364.972 551.478 365.426 C 551.371 365.473 551.259 365.495 551.15 365.495 Z M 588.334 365.846 C 588.219 365.846 588.102 365.822 587.991 365.771 C 586.957 365.296 585.892 364.856 584.827 364.463 C 584.394 364.303 584.171 363.817 584.327 363.377 C 584.484 362.936 584.964 362.708 585.396 362.868 C 586.501 363.276 587.604 363.732 588.677 364.224 C 589.097 364.417 589.284 364.919 589.095 365.346 C 588.955 365.66 588.652 365.846 588.334 365.846 Z M 544.987 368.763 C 544.709 368.763 544.436 368.621 544.278 368.363 C 544.035 367.965 544.155 367.441 544.546 367.194 C 545.545 366.563 546.58 365.962 547.622 365.41 C 548.031 365.193 548.534 365.355 548.747 365.77 C 548.96 366.186 548.802 366.698 548.393 366.915 C 547.389 367.447 546.391 368.026 545.427 368.635 C 545.29 368.722 545.138 368.763 544.987 368.763 Z" fill="rgb(0,129,161)"/>
    <path d="M 592.912 368.269 C 592.767 368.269 592.62 368.231 592.487 368.15 C 592.018 367.867 591.544 367.592 591.064 367.326 C 590.66 367.102 590.511 366.587 590.732 366.175 C 590.953 365.764 591.459 365.612 591.864 365.837 C 592.361 366.113 592.853 366.398 593.339 366.691 C 593.735 366.931 593.865 367.452 593.63 367.854 C 593.474 368.121 593.197 368.269 592.912 368.269 Z" fill="rgb(0,129,161)"/>
    <path d="M 595.879 367.982 C 595.01 367.982 594.303 368.701 594.303 369.584 C 594.303 370.468 595.01 371.187 595.879 371.187 C 596.748 371.187 597.456 370.468 597.456 369.584 C 597.456 368.701 596.748 367.982 595.879 367.982 Z M 595.879 372.883 C 594.09 372.883 592.635 371.403 592.635 369.584 C 592.635 367.765 594.09 366.285 595.879 366.285 C 597.668 366.285 599.124 367.765 599.124 369.584 C 599.124 371.403 597.668 372.883 595.879 372.883 Z" fill="rgb(0,129,161)"/>
    <path d="M 605.915 425.961 C 605.88 425.961 605.843 425.953 605.809 425.937 C 605.683 425.878 605.629 425.725 605.687 425.598 C 605.884 425.171 606.072 424.741 606.254 424.307 C 606.308 424.178 606.455 424.117 606.583 424.172 C 606.71 424.228 606.77 424.378 606.716 424.507 C 606.532 424.947 606.341 425.382 606.143 425.814 C 606.1 425.906 606.009 425.961 605.915 425.961 Z" fill="rgb(255,211,1)"/>
    <path d="M 603.293 430.792 C 603.247 430.792 603.2 430.779 603.158 430.751 C 603.041 430.675 603.008 430.517 603.082 430.398 C 603.566 429.632 604.031 428.84 604.464 428.043 C 604.531 427.919 604.684 427.874 604.805 427.942 C 604.927 428.01 604.971 428.165 604.903 428.289 C 604.466 429.097 603.995 429.899 603.505 430.674 C 603.457 430.75 603.376 430.792 603.293 430.792 Z M 536.426 432.718 C 536.348 432.718 536.271 432.681 536.222 432.612 C 535.689 431.865 535.174 431.091 534.693 430.312 C 534.619 430.193 534.655 430.035 534.772 429.96 C 534.889 429.885 535.045 429.921 535.118 430.041 C 535.593 430.809 536.101 431.574 536.629 432.312 C 536.71 432.427 536.685 432.586 536.573 432.669 C 536.528 432.702 536.477 432.718 536.426 432.718 Z M 600.061 435.222 C 600.004 435.222 599.946 435.202 599.899 435.161 C 599.793 435.07 599.781 434.909 599.87 434.801 C 600.45 434.108 601.015 433.386 601.549 432.655 C 601.632 432.541 601.789 432.518 601.9 432.601 C 602.011 432.685 602.035 432.845 601.952 432.959 C 601.411 433.699 600.84 434.43 600.253 435.132 C 600.203 435.192 600.133 435.222 600.061 435.222 Z M 539.898 436.956 C 539.832 436.956 539.766 436.929 539.717 436.877 C 539.091 436.209 538.48 435.512 537.9 434.804 C 537.811 434.695 537.825 434.534 537.932 434.444 C 538.039 434.353 538.197 434.369 538.286 434.477 C 538.858 435.176 539.462 435.865 540.08 436.525 C 540.176 436.626 540.172 436.788 540.071 436.885 C 540.023 436.933 539.961 436.956 539.898 436.956 Z M 596.279 439.176 C 596.21 439.176 596.141 439.147 596.091 439.092 C 595.999 438.986 596.007 438.826 596.111 438.731 C 596.776 438.122 597.43 437.482 598.055 436.83 C 598.151 436.728 598.31 436.727 598.41 436.825 C 598.509 436.923 598.511 437.085 598.414 437.186 C 597.782 437.847 597.12 438.494 596.446 439.111 C 596.398 439.155 596.338 439.176 596.279 439.176 Z M 543.894 440.687 C 543.839 440.687 543.784 440.669 543.737 440.63 C 543.029 440.054 542.332 439.445 541.665 438.822 C 541.563 438.727 541.556 438.565 541.65 438.461 C 541.744 438.357 541.903 438.351 542.005 438.446 C 542.664 439.061 543.353 439.662 544.051 440.233 C 544.159 440.32 544.177 440.482 544.09 440.591 C 544.041 440.654 543.968 440.687 543.894 440.687 Z M 592.012 442.584 C 591.932 442.584 591.853 442.545 591.805 442.473 C 591.727 442.356 591.757 442.197 591.871 442.118 C 592.608 441.606 593.34 441.06 594.046 440.496 C 594.156 440.409 594.313 440.429 594.399 440.54 C 594.484 440.65 594.465 440.811 594.356 440.898 C 593.641 441.469 592.9 442.021 592.154 442.54 C 592.11 442.569 592.061 442.584 592.012 442.584 Z M 548.343 443.845 C 548.299 443.845 548.254 443.832 548.213 443.807 C 547.439 443.333 546.668 442.824 545.923 442.296 C 545.809 442.215 545.781 442.056 545.861 441.94 C 545.94 441.825 546.097 441.797 546.21 441.877 C 546.946 442.399 547.708 442.901 548.472 443.37 C 548.591 443.443 548.63 443.6 548.558 443.721 C 548.511 443.8 548.428 443.845 548.343 443.845 Z M 587.337 445.382 C 587.245 445.382 587.157 445.33 587.113 445.241 C 587.05 445.115 587.101 444.961 587.224 444.899 C 588.025 444.49 588.822 444.049 589.593 443.587 C 589.713 443.515 589.867 443.556 589.937 443.677 C 590.007 443.799 589.967 443.956 589.848 444.027 C 589.067 444.495 588.26 444.942 587.45 445.355 C 587.414 445.373 587.375 445.382 587.337 445.382 Z M 553.167 446.368 C 553.134 446.368 553.1 446.361 553.067 446.347 C 552.234 445.981 551.403 445.582 550.598 445.16 C 550.475 445.096 550.426 444.942 550.49 444.817 C 550.554 444.691 550.704 444.643 550.828 444.706 C 551.623 445.122 552.444 445.517 553.267 445.879 C 553.394 445.934 553.453 446.085 553.397 446.214 C 553.357 446.311 553.264 446.368 553.167 446.368 Z M 582.335 447.517 C 582.23 447.517 582.133 447.451 582.097 447.344 C 582.052 447.212 582.122 447.066 582.254 447.02 C 583.101 446.725 583.949 446.396 584.774 446.045 C 584.901 445.99 585.049 446.051 585.103 446.181 C 585.156 446.311 585.096 446.461 584.968 446.515 C 584.133 446.872 583.274 447.204 582.416 447.503 C 582.389 447.513 582.362 447.517 582.335 447.517 Z M 558.282 448.21 C 558.259 448.21 558.236 448.207 558.214 448.2 C 557.339 447.951 556.464 447.669 555.61 447.362 C 555.479 447.315 555.411 447.169 555.457 447.036 C 555.503 446.903 555.647 446.833 555.777 446.881 C 556.621 447.184 557.486 447.462 558.349 447.708 C 558.482 447.746 558.56 447.887 558.523 448.023 C 558.492 448.136 558.391 448.21 558.282 448.21 Z M 577.096 448.948 C 576.979 448.948 576.873 448.863 576.849 448.742 C 576.823 448.603 576.912 448.469 577.047 448.442 C 577.926 448.266 578.81 448.057 579.674 447.82 C 579.808 447.783 579.946 447.865 579.981 448.001 C 580.018 448.137 579.938 448.277 579.804 448.313 C 578.929 448.553 578.035 448.764 577.145 448.943 C 577.128 448.946 577.112 448.948 577.096 448.948 Z M 563.593 449.334 C 563.581 449.334 563.569 449.333 563.558 449.332 C 562.659 449.204 561.754 449.045 560.867 448.857 C 560.731 448.829 560.644 448.693 560.672 448.555 C 560.701 448.417 560.832 448.329 560.969 448.357 C 561.845 448.543 562.739 448.701 563.626 448.826 C 563.764 448.845 563.86 448.974 563.841 449.114 C 563.823 449.241 563.716 449.334 563.593 449.334 Z M 571.715 449.65 C 571.584 449.65 571.473 449.545 571.465 449.41 C 571.457 449.27 571.562 449.148 571.7 449.139 C 572.593 449.085 573.496 448.998 574.385 448.882 C 574.521 448.862 574.649 448.963 574.666 449.103 C 574.684 449.242 574.587 449.37 574.45 449.388 C 573.549 449.506 572.634 449.594 571.731 449.649 C 571.726 449.65 571.72 449.65 571.715 449.65 Z M 569.003 449.727 C 569.002 449.727 569.002 449.727 569.002 449.727 C 568.093 449.723 567.175 449.687 566.273 449.621 C 566.135 449.611 566.031 449.489 566.041 449.349 C 566.051 449.208 566.17 449.1 566.309 449.112 C 567.199 449.177 568.106 449.212 569.004 449.216 C 569.143 449.217 569.255 449.332 569.254 449.473 C 569.254 449.613 569.141 449.727 569.003 449.727 Z" fill="rgb(255,211,1)"/>
    <path d="M 533.526 428.021 C 533.437 428.021 533.35 427.973 533.305 427.887 C 533.083 427.467 532.869 427.043 532.661 426.615 C 532.599 426.489 532.65 426.336 532.775 426.273 C 532.898 426.211 533.05 426.263 533.111 426.389 C 533.316 426.812 533.528 427.23 533.748 427.645 C 533.813 427.769 533.767 427.924 533.645 427.991 C 533.607 428.011 533.566 428.021 533.526 428.021 Z" fill="rgb(255,211,1)"/>
    <path d="M 569.212 449.727 C 562.56 449.727 555.959 448.061 550.124 444.908 C 550.001 444.842 549.955 444.687 550.019 444.563 C 550.085 444.438 550.236 444.391 550.359 444.457 C 556.122 447.571 562.642 449.217 569.212 449.217 C 585.013 449.217 599.418 439.75 605.913 425.098 C 605.97 424.97 606.118 424.912 606.245 424.97 C 606.371 425.028 606.427 425.179 606.37 425.308 C 599.795 440.142 585.209 449.727 569.212 449.727 Z" fill="rgb(255,211,1)"/>
    <path d="M 605.966 391.268 C 605.871 391.268 605.78 391.213 605.738 391.12 C 599.168 376.704 584.831 367.389 569.212 367.389 C 562.261 367.389 555.409 369.22 549.398 372.685 C 549.278 372.755 549.124 372.711 549.056 372.589 C 548.988 372.467 549.03 372.311 549.151 372.241 C 555.237 368.733 562.174 366.878 569.212 366.878 C 585.026 366.878 599.541 376.309 606.194 390.905 C 606.252 391.033 606.197 391.185 606.072 391.244 C 606.037 391.26 606.001 391.268 605.966 391.268 Z" fill="rgb(255,211,1)"/>
    <path d="M 532.402 413.612 C 529.577 416.382 530.286 420.9 530.398 421.523 C 532.408 423.102 534.096 421.833 534.421 421.556 C 535.056 416.306 532.947 414.089 532.402 413.612 Z M 531.917 413.522 C 532.024 413.407 532.136 413.295 532.254 413.186 C 532.323 413.121 532.427 413.114 532.505 413.167 C 532.632 413.254 535.606 415.372 534.814 421.686 C 534.808 421.734 534.788 421.777 534.751 421.811 C 534.73 421.832 532.574 423.816 530.086 421.799 C 530.049 421.769 530.024 421.728 530.014 421.681 C 530.003 421.629 528.998 416.653 531.917 413.522 Z" fill="rgb(255,211,1)"/>
    <path d="M 530.658 421.92 C 530.684 421.893 530.72 421.877 530.759 421.877 C 530.836 421.877 530.899 421.94 530.899 422.018 C 530.901 422.662 530.731 423.152 530.643 423.361 C 531.969 424.344 533.713 423.609 534.175 423.384 C 533.967 422.922 533.864 422.496 533.859 422.086 C 533.858 422.007 533.921 421.943 533.997 421.942 C 534.074 421.941 534.137 422.004 534.138 422.082 C 534.143 422.487 534.256 422.913 534.485 423.386 C 534.517 423.453 534.492 423.535 534.427 423.572 C 534.332 423.626 532.071 424.885 530.383 423.516 C 530.33 423.473 530.315 423.399 530.346 423.339 C 530.349 423.333 530.622 422.792 530.621 422.019 C 530.62 421.981 530.635 421.946 530.658 421.92 Z" fill="rgb(255,211,1)"/>
    <path d="M 533.344 417.243 L 533.34 417.246 L 533.344 417.243 Z M 532.937 417.755 C 533.068 417.616 533.139 417.434 533.14 417.242 L 533.14 417.242 C 533.141 417.041 533.066 416.852 532.926 416.709 C 532.787 416.566 532.602 416.487 532.404 416.486 C 532.207 416.485 532.02 416.562 531.88 416.703 C 531.733 416.848 531.661 417.034 531.661 417.234 C 531.66 417.435 531.735 417.625 531.875 417.767 C 532.014 417.91 532.199 417.989 532.397 417.991 C 532.594 417.991 532.781 417.914 532.921 417.772 C 532.927 417.767 532.932 417.761 532.937 417.755 Z M 531.568 416.437 C 531.577 416.427 531.585 416.418 531.594 416.41 C 531.811 416.191 532.1 416.071 532.406 416.072 C 532.712 416.074 532.999 416.197 533.215 416.418 C 533.43 416.639 533.548 416.933 533.547 417.244 C 533.545 417.555 533.429 417.85 533.207 418.066 C 532.989 418.285 532.701 418.405 532.395 418.403 C 532.088 418.402 531.802 418.28 531.586 418.058 C 531.371 417.837 531.253 417.544 531.254 417.232 C 531.256 416.933 531.367 416.653 531.568 416.437 Z" fill="rgb(255,211,1)"/>
    <path d="M 529.048 418.77 C 529.492 418.295 529.894 418.034 529.933 418.009 C 530.027 417.949 530.153 417.978 530.212 418.075 C 530.272 418.172 530.241 418.3 530.148 418.36 C 530.129 418.372 528.342 419.534 528.232 421.498 C 528.926 421.19 529.877 420.827 530.192 420.996 C 530.277 421.042 530.333 421.119 530.348 421.213 C 530.367 421.325 530.292 421.432 530.182 421.451 C 530.099 421.465 530.019 421.426 529.977 421.359 C 529.732 421.338 528.84 421.665 528.111 422.006 C 528.049 422.035 527.977 422.031 527.92 421.994 C 527.862 421.958 527.825 421.895 527.823 421.826 C 527.773 420.45 528.449 419.414 529.048 418.77 Z" fill="rgb(255,211,1)"/>
    <path d="M 534.81 418.067 C 534.875 417.997 534.982 417.982 535.066 418.036 C 535.155 418.093 537.248 419.48 537.138 421.873 C 537.135 421.942 537.098 422.005 537.04 422.04 C 536.982 422.076 536.91 422.08 536.848 422.05 C 536.123 421.703 535.235 421.366 534.99 421.384 C 534.945 421.451 534.866 421.489 534.783 421.474 C 534.673 421.454 534.6 421.347 534.619 421.234 C 534.636 421.14 534.692 421.064 534.777 421.019 C 535.093 420.853 536.042 421.226 536.732 421.541 C 536.642 419.578 534.866 418.396 534.847 418.384 C 534.753 418.322 534.725 418.194 534.786 418.099 C 534.793 418.087 534.801 418.077 534.81 418.067 Z" fill="rgb(255,211,1)"/>
    <path d="M 553.245 376.064 C 566.481 369.266 583.049 371.489 594.106 382.732 C 596.54 385.207 598.545 387.954 600.119 390.876" fill="none"/>
    <path d="M 553.245 376.064 C 566.481 369.266 583.049 371.489 594.106 382.732 C 596.54 385.207 598.545 387.954 600.119 390.876" fill="none" mask="url(#_mask_Gwz5bb7TczL3uXw5sPLrBrG20oeQlAcb)" vector-effect="non-scaling-stroke" stroke-opacity="100" stroke-linejoin="bevel" stroke-linecap="round" stroke-miterlimit="10" style="" stroke="rgb(0,129,161)"/>
    <path d="M 538.053 391.128 C 539 389.335 540.109 387.607 541.377 385.966" fill="none"/>
    <path d="M 538.053 391.128 C 539 389.335 540.109 387.607 541.377 385.966" fill="none" mask="url(#_mask_iS3S8ftGB3ndup2I52I3AKp2p8EPbYP9)" vector-effect="non-scaling-stroke" stroke-opacity="100" stroke-linejoin="bevel" stroke-linecap="round" stroke-miterlimit="10" style="" stroke="rgb(0,129,161)"/>
    <path d="M 594.106 433.479 C 592.142 435.476 590.003 437.189 587.741 438.617 C 574.129 447.207 556.017 445.494 544.201 433.479 C 542.141 431.385 540.389 429.097 538.946 426.672" fill="none"/>
    <path d="M 594.106 433.479 C 592.142 435.476 590.003 437.189 587.741 438.617 C 574.129 447.207 556.017 445.494 544.201 433.479 C 542.141 431.385 540.389 429.097 538.946 426.672" fill="none" mask="url(#_mask_nYOgkDqGPPtCkkaYaBrRkitJr0uSOFm7)" vector-effect="non-scaling-stroke" stroke-width="4.12" stroke-opacity="100" stroke-linejoin="bevel" stroke-linecap="round" stroke-miterlimit="10" stroke="rgb(0,129,161)"/>
    <path d="M 597.35 433.479 C 596.454 434.39 595.002 434.39 594.106 433.479 C 593.21 432.568 593.21 431.091 594.106 430.18 C 595.002 429.269 596.454 429.269 597.35 430.18 C 598.246 431.091 598.246 432.568 597.35 433.479 Z" fill="none"/>
    <path d="M 597.35 433.479 C 596.454 434.39 595.002 434.39 594.106 433.479 C 593.21 432.568 593.21 431.091 594.106 430.18 C 595.002 429.269 596.454 429.269 597.35 430.18 C 598.246 431.091 598.246 432.568 597.35 433.479 Z" fill="none" mask="url(#_mask_ITJcURAnYfVhj905gdcC7Tg47hmB8JgD)" vector-effect="non-scaling-stroke" stroke-width="4.12" stroke-opacity="100" stroke-linejoin="bevel" stroke-linecap="round" stroke-miterlimit="10" stroke="rgb(0,129,161)"/>
    <path d="M 598.897 432.457 C 599.883 433.233 600.237 433.714 600.084 433.983 C 599.829 434.432 597.685 433.66 595.294 432.256 C 592.904 430.853 591.174 429.351 591.429 428.901 C 591.578 428.638 592.564 428.91 593.73 429.397" fill="none"/>
    <path d="M 598.897 432.457 C 599.883 433.233 600.237 433.714 600.084 433.983 C 599.829 434.432 597.685 433.66 595.294 432.256 C 592.904 430.853 591.174 429.351 591.429 428.901 C 591.578 428.638 592.564 428.91 593.73 429.397" fill="none" mask="url(#_mask_7auzwICsIzMfLnlWxM0SzaO4fy7syqp3)" vector-effect="non-scaling-stroke" stroke-width="1.166" stroke-opacity="100" stroke-linejoin="bevel" stroke-linecap="round" stroke-miterlimit="10" stroke="rgb(255,211,1)"/>
    <path d="M 570.513 392.866 C 574.432 392.866 577.836 394.306 580.724 397.188 C 583.613 400.069 585.057 403.646 585.057 407.919 C 585.057 412.188 583.679 415.825 580.923 418.829 C 578.167 421.83 574.776 423.331 570.75 423.331 C 566.725 423.331 563.301 421.849 560.478 418.886 C 557.656 415.922 556.245 412.394 556.245 408.3 C 556.245 406.063 556.642 403.968 557.437 402.014 C 558.232 400.061 559.292 398.426 560.616 397.109 C 561.941 395.788 563.464 394.75 565.187 393.994 C 566.909 393.242 568.684 392.866 570.513 392.866 M 563.277 408.098 C 563.277 408.098 563.277 408.697 563.277 409.894 C 563.277 411.095 564.038 412.442 565.562 413.935 C 567.085 415.432 568.789 416.181 570.673 416.181 C 572.553 416.181 574.248 415.453 575.757 413.997 C 577.269 412.541 578.025 410.588 578.025 408.138 C 578.025 405.687 577.263 403.72 575.74 402.239 C 574.216 400.757 572.513 400.016 570.629 400.016 C 568.748 400.016 567.054 400.765 565.545 402.261 C 564.033 403.754 563.277 405.7 563.277 408.098 Z" style="font-variant-ligatures: none; fill: rgb(0, 0, 0); stroke: none; white-space: pre; color: rgb(255, 255, 255);"/>
    <path d="M 585.646 420.772 L 585.646 409.782 C 585.646 409.496 585.654 409.284 585.671 409.144 C 585.692 409.005 585.745 408.848 585.831 408.674 C 586.002 408.336 586.415 408.167 587.069 408.167 C 587.723 408.167 588.166 408.251 588.395 408.418 C 588.621 408.589 588.753 408.838 588.791 409.165 C 589.26 408.51 589.997 408.183 591.001 408.183 C 592.008 408.183 592.961 408.667 593.858 409.636 C 594.759 410.601 595.21 411.722 595.21 413.001 C 595.21 414.28 594.763 415.402 593.869 416.367 C 592.974 417.335 592.022 417.82 591.011 417.82 C 590 417.82 589.267 417.53 588.811 416.952 L 588.811 420.751 C 588.811 421.04 588.801 421.255 588.78 421.394 C 588.763 421.53 588.709 421.688 588.616 421.87 C 588.523 422.054 588.366 422.183 588.143 422.256 C 587.92 422.333 587.619 422.371 587.239 422.371 C 586.855 422.371 586.548 422.333 586.319 422.256 C 586.093 422.183 585.933 422.058 585.841 421.88 C 585.748 421.706 585.692 421.549 585.671 421.41 C 585.654 421.274 585.646 421.061 585.646 420.772 M 589.31 411.909 C 589.31 411.909 589.238 411.994 589.094 412.165 C 588.953 412.332 588.883 412.618 588.883 413.022 C 588.883 413.423 589.029 413.788 589.32 414.119 C 589.608 414.454 589.978 414.621 590.43 414.621 C 590.879 414.621 591.261 414.457 591.576 414.13 C 591.892 413.802 592.049 413.433 592.049 413.022 C 592.049 412.607 591.9 412.233 591.602 411.898 C 591.307 411.567 590.922 411.402 590.446 411.402 C 589.973 411.402 589.594 411.571 589.31 411.909 Z M 604.296 411.94 C 604.296 411.94 604.296 412.132 604.296 412.515 C 604.296 412.902 604.108 413.28 603.731 413.649 C 603.354 414.018 602.938 414.203 602.482 414.203 L 598.098 414.203 C 598.098 414.555 598.302 414.851 598.71 415.092 C 599.114 415.328 599.52 415.447 599.928 415.447 C 600.644 415.447 601.206 415.372 601.613 415.222 L 601.814 415.144 C 602.112 415.008 602.359 414.94 602.554 414.94 C 602.951 414.94 603.291 415.222 603.571 415.786 C 603.733 416.124 603.813 416.412 603.813 416.649 C 603.813 417.767 602.499 418.326 599.871 418.326 C 598.96 418.326 598.149 418.166 597.44 417.846 C 596.731 417.525 596.179 417.102 595.785 416.576 C 595.008 415.558 594.619 414.423 594.619 413.168 C 594.619 411.59 595.121 410.327 596.125 409.379 C 597.132 408.432 598.388 407.958 599.892 407.958 C 601.605 407.958 602.862 408.573 603.664 409.803 C 604.086 410.454 604.296 411.167 604.296 411.94 M 600.39 412.494 C 600.86 412.494 601.094 412.294 601.094 411.893 C 601.094 411.604 600.986 411.371 600.771 411.193 C 600.555 411.019 600.246 410.931 599.846 410.931 C 599.445 410.931 599.047 411.097 598.653 411.428 C 598.259 411.762 598.062 412.118 598.062 412.494 L 600.39 412.494 Z M 608.53 408.167 C 609.764 408.167 610.79 408.646 611.609 409.604 C 612.431 410.566 612.842 411.736 612.842 413.116 L 612.842 416.424 C 612.842 416.713 612.832 416.929 612.811 417.072 C 612.794 417.219 612.743 417.379 612.657 417.553 C 612.482 417.891 612.001 418.06 611.213 418.06 C 610.336 418.06 609.83 417.828 609.697 417.365 C 609.621 417.152 609.584 416.833 609.584 416.409 L 609.584 413.095 C 609.584 412.58 609.438 412.179 609.147 411.893 C 608.859 411.604 608.472 411.46 607.985 411.46 C 607.495 411.46 607.1 411.609 606.798 411.909 C 606.497 412.212 606.346 412.607 606.346 413.095 L 606.346 416.424 C 606.346 416.713 606.337 416.929 606.32 417.072 C 606.3 417.219 606.24 417.379 606.14 417.553 C 605.983 417.891 605.508 418.06 604.717 418.06 C 603.939 418.06 603.464 417.891 603.293 417.553 C 603.207 417.365 603.154 417.199 603.134 417.057 C 603.117 416.91 603.108 416.694 603.108 416.409 L 603.108 409.745 C 603.108 409.47 603.117 409.261 603.134 409.118 C 603.154 408.972 603.214 408.811 603.314 408.637 C 603.485 408.324 603.959 408.167 604.737 408.167 C 605.488 408.167 605.95 408.312 606.125 408.601 C 606.248 408.813 606.31 409.069 606.31 409.369 C 606.358 409.282 606.469 409.157 606.644 408.993 C 606.815 408.829 606.981 408.698 607.143 408.601 C 607.56 408.312 608.023 408.167 608.53 408.167 Z M 622.016 410.686 C 622.746 411.564 623.11 412.548 623.11 413.639 C 623.083 414.893 622.66 415.943 621.841 416.79 C 621.022 417.637 620.027 418.06 618.855 418.06 L 613.988 418.06 C 613.125 418.06 612.619 417.823 612.472 417.349 C 612.396 417.133 612.359 416.806 612.359 416.367 L 612.359 405.925 C 612.359 405.626 612.367 405.406 612.385 405.267 C 612.405 405.131 612.465 404.969 612.564 404.781 C 612.736 404.443 613.215 404.274 614.003 404.274 L 618.67 404.274 C 619.804 404.274 620.753 404.674 621.517 405.476 C 622.319 406.291 622.72 407.27 622.72 408.413 C 622.72 409.238 622.485 409.996 622.016 410.686 M 619.832 413.451 C 619.832 413.151 619.799 412.914 619.734 412.74 C 619.665 412.562 619.551 412.437 619.389 412.363 C 619.143 412.263 618.797 412.212 618.351 412.212 C 617.909 412.212 617.577 412.123 617.354 411.945 C 617.132 411.771 617.02 411.411 617.02 410.864 C 617.02 410.32 617.135 409.96 617.365 409.782 C 617.591 409.608 617.969 409.52 618.5 409.52 C 618.994 409.52 619.29 409.388 619.389 409.123 C 619.427 408.988 619.446 408.763 619.446 408.449 C 619.446 408.136 619.343 407.916 619.138 407.791 C 618.936 407.665 618.631 407.603 618.223 407.603 L 615.633 407.603 L 615.633 414.731 L 618.67 414.731 C 619.444 414.731 619.832 414.304 619.832 413.451 Z M 624.699 409.824 C 624.699 409.534 624.708 409.317 624.725 409.17 C 624.745 409.028 624.799 408.862 624.884 408.674 C 625.056 408.346 625.537 408.183 626.329 408.183 C 626.921 408.183 627.341 408.291 627.587 408.507 C 627.797 408.681 627.906 408.949 627.916 409.311 C 627.93 409.437 627.937 409.62 627.937 409.86 L 627.937 416.445 C 627.937 416.734 627.928 416.95 627.911 417.093 C 627.891 417.236 627.831 417.401 627.732 417.59 C 627.574 417.917 627.099 418.081 626.308 418.081 C 625.53 418.081 625.056 417.912 624.884 417.574 C 624.799 417.386 624.745 417.222 624.725 417.083 C 624.708 416.947 624.699 416.727 624.699 416.424 L 624.699 409.824 M 627.742 406.333 C 627.742 406.333 627.719 406.378 627.675 406.468 C 627.627 406.559 627.487 406.643 627.253 406.719 C 627.017 406.793 626.705 406.829 626.318 406.829 C 625.931 406.829 625.619 406.793 625.383 406.719 C 625.15 406.643 624.987 406.511 624.894 406.322 C 624.802 406.134 624.745 405.969 624.725 405.826 C 624.708 405.68 624.699 405.462 624.699 405.172 C 624.699 404.887 624.708 404.671 624.725 404.524 C 624.745 404.382 624.799 404.222 624.884 404.044 C 625.056 403.706 625.537 403.537 626.329 403.537 C 627.106 403.537 627.574 403.706 627.732 404.044 C 627.831 404.232 627.891 404.399 627.911 404.545 C 627.928 404.688 627.937 404.904 627.937 405.193 C 627.937 405.483 627.928 405.699 627.911 405.842 C 627.891 405.988 627.834 406.152 627.742 406.333 Z M 635.503 411.496 L 634.301 411.423 L 634.301 414.015 C 634.301 414.356 634.352 414.602 634.455 414.752 C 634.561 414.902 634.758 414.977 635.046 414.977 C 635.337 414.977 635.56 414.985 635.714 415.003 C 635.868 415.024 636.031 415.084 636.202 415.186 C 636.486 415.346 636.629 415.766 636.629 416.445 C 636.629 417.236 636.456 417.718 636.11 417.893 C 635.924 417.98 635.762 418.034 635.621 418.055 C 635.481 418.072 635.274 418.081 635 418.081 C 633.718 418.081 632.745 417.786 632.08 417.198 C 631.412 416.609 631.078 415.611 631.078 414.203 L 631.078 411.423 C 630.845 411.458 630.593 411.475 630.323 411.475 C 630.049 411.475 629.822 411.369 629.644 411.156 C 629.466 410.944 629.377 410.58 629.377 410.064 C 629.377 409.552 629.408 409.179 629.47 408.946 C 629.531 408.716 629.617 408.55 629.727 408.449 C 629.925 408.285 630.172 408.204 630.466 408.204 L 631.078 408.277 L 631.078 406.343 C 631.078 406.054 631.088 405.84 631.109 405.7 C 631.126 405.565 631.184 405.415 631.284 405.251 C 631.445 404.937 631.919 404.781 632.707 404.781 C 633.547 404.781 634.047 405.012 634.208 405.476 C 634.27 405.678 634.301 405.998 634.301 406.437 L 634.301 408.277 C 634.842 408.228 635.251 408.204 635.529 408.204 C 635.806 408.204 636.015 408.212 636.156 408.23 C 636.3 408.251 636.464 408.312 636.649 408.413 C 636.968 408.573 637.127 409.055 637.127 409.86 C 637.127 410.651 636.961 411.134 636.629 411.308 C 636.444 411.395 636.281 411.449 636.141 411.47 C 635.996 411.487 635.784 411.496 635.503 411.496 Z M 635.052 417.198 C 634.819 417.048 634.702 416.809 634.702 416.482 C 634.702 416.154 634.937 415.659 635.406 414.998 C 635.54 414.781 635.759 414.673 636.064 414.673 C 636.366 414.673 636.775 414.828 637.293 415.139 C 637.81 415.445 638.279 415.598 638.701 415.598 C 639.451 415.598 639.826 415.447 639.826 415.144 C 639.826 414.907 639.413 414.733 638.588 414.621 C 637.81 414.506 637.039 414.21 636.275 413.733 C 635.919 413.51 635.622 413.156 635.386 412.672 C 635.153 412.188 635.036 411.614 635.036 410.952 C 635.036 408.97 636.374 407.979 639.05 407.979 C 639.927 407.979 640.828 408.191 641.753 408.617 C 642.185 408.818 642.401 409.069 642.401 409.369 C 642.401 409.672 642.264 410.043 641.99 410.482 C 641.719 410.921 641.442 411.141 641.157 411.141 C 641.01 411.141 640.736 411.047 640.335 410.858 C 639.934 410.67 639.499 410.576 639.03 410.576 C 638.303 410.576 637.94 410.714 637.94 410.989 C 637.94 411.365 638.36 411.609 639.199 411.721 C 640.011 411.808 640.801 412.047 641.568 412.437 C 641.925 412.611 642.223 412.916 642.463 413.351 C 642.703 413.783 642.823 414.325 642.823 414.977 C 642.823 415.628 642.703 416.184 642.463 416.644 C 642.223 417.1 641.887 417.441 641.456 417.668 C 640.667 418.055 639.677 418.248 638.485 418.248 C 637.296 418.248 636.152 417.898 635.052 417.198 Z" style="font-variant-ligatures: none; fill: rgb(0, 0, 0); stroke: none; white-space: pre; color: rgb(255, 255, 255);"/>
    <path d="M 543.218 374.395 L 541.868 376.12 L 543.138 376.957 L 543.138 381.977 L 550.759 381.977 L 550.759 376.957 L 552.029 376.12 L 550.679 374.395 L 549.489 374.866 L 547.491 374.866 L 547.279 374.604 C 547.191 374.493 547.051 374.434 546.908 374.447 C 546.794 374.458 546.689 374.515 546.618 374.604 L 546.406 374.866 L 544.408 374.866 L 543.218 374.395 Z M 546.948 375.532 L 547.755 376.539 L 546.142 376.539 L 546.948 375.532 Z M 544.858 375.702 L 545.731 375.702 L 545.056 376.539 L 544.832 376.539 L 544.832 375.741 L 544.858 375.702 Z M 548.166 375.702 L 549.039 375.702 L 549.065 375.741 L 549.065 376.539 L 548.84 376.539 L 548.166 375.702 Z M 543.984 377.376 L 549.912 377.376 L 549.912 381.14 L 543.984 381.14 L 543.984 377.376 Z M 545.678 378.212 L 545.678 379.048 L 548.219 379.048 L 548.219 378.212 L 545.678 378.212 Z" fill="rgb(0,129,161)"/>
    <path d="M 601.282 393.591 C 601.248 393.598 601.216 393.612 601.189 393.632 L 599.011 395.095 L 599.005 395.101 L 598.997 395.101 C 598.981 395.109 598.965 395.119 598.951 395.13 L 598.944 395.136 C 598.94 395.138 598.935 395.139 598.931 395.142 L 598.931 395.148 C 598.924 395.155 598.917 395.163 598.911 395.171 C 598.908 395.175 598.906 395.178 598.904 395.183 L 598.898 395.188 C 598.893 395.198 598.888 395.208 598.884 395.218 L 598.045 396.681 C 598.003 396.753 598.019 396.839 598.084 396.897 C 598.15 396.954 598.249 396.968 598.331 396.931 L 598.878 396.692 L 598.878 400.492 C 598.878 400.595 598.974 400.679 599.091 400.679 L 605.492 400.679 C 605.506 400.678 605.519 400.676 605.533 400.673 C 605.539 400.672 605.546 400.669 605.552 400.667 C 605.579 400.66 605.604 400.648 605.626 400.632 C 605.631 400.629 605.635 400.625 605.639 400.62 C 605.644 400.617 605.648 400.613 605.652 400.609 L 605.666 400.591 C 605.67 400.588 605.675 400.584 605.679 400.58 L 607.358 398.744 C 607.388 398.711 607.404 398.67 607.404 398.627 L 607.404 396.843 L 608.624 395.777 C 608.691 395.716 608.702 395.622 608.65 395.55 L 607.404 393.737 C 607.397 393.707 607.381 393.679 607.358 393.656 C 607.355 393.651 607.353 393.647 607.351 393.644 L 607.344 393.644 C 607.343 393.64 607.34 393.636 607.338 393.632 L 607.331 393.632 C 607.327 393.628 607.323 393.624 607.318 393.621 C 607.303 393.613 607.288 393.608 607.271 393.603 C 607.267 393.601 607.263 393.599 607.258 393.597 L 607.251 393.597 C 607.247 393.595 607.243 393.593 607.238 393.591 L 601.282 393.591 L 601.282 393.591 Z M 601.389 393.965 L 606.672 393.965 L 605.393 395.083 L 599.717 395.083 L 601.389 393.965 Z M 607.152 394.081 L 608.204 395.608 L 606.805 396.832 L 605.753 395.305 L 607.152 394.081 Z M 599.304 395.457 L 605.273 395.457 L 605.273 400.306 L 599.304 400.306 L 599.304 396.412 C 599.305 396.405 599.305 396.397 599.304 396.389 L 599.304 395.457 Z M 605.699 395.935 L 606.585 397.228 C 606.618 397.278 606.675 397.312 606.74 397.32 C 606.805 397.328 606.871 397.309 606.918 397.269 L 606.978 397.217 L 606.978 398.563 L 605.699 399.962 L 605.699 395.935 Z M 598.878 396.063 L 598.878 396.272 L 598.718 396.342 L 598.878 396.063 Z M 601.163 396.203 C 601.045 396.217 600.963 396.313 600.979 396.415 C 600.996 396.518 601.105 396.59 601.223 396.575 L 603.354 396.575 C 603.431 396.577 603.503 396.541 603.542 396.483 C 603.58 396.425 603.58 396.353 603.542 396.295 C 603.503 396.237 603.431 396.202 603.354 396.203 L 601.163 396.203 Z" fill="rgb(255,211,1)"/>
  </g>
  <path d="M 758.011 485.003" style="fill: rgb(0, 129, 161); fill-opacity: 1; stroke: rgb(0, 129, 161); stroke-opacity: 1; stroke-width: 2; paint-order: stroke;"/>
  <mask id="_mask_Gwz5bb7TczL3uXw5sPLrBrG20oeQlAcb" x="-200%" y="-200%" width="400%" height="400%">
    <path d="M 471.92 324.299 L 568.2 324.299 L 568.2 395.767 L 471.92 395.767 L 471.92 324.299 Z" style="fill:white;"/>
    <path d="M 525.742 363.027 C 528.214 361.757 531.309 362.172 533.374 364.272 C 533.829 364.735 534.203 365.248 534.497 365.794" fill="black" stroke="none"/>
  </mask>
  <mask id="_mask_iS3S8ftGB3ndup2I52I3AKp2p8EPbYP9" x="-200%" y="-200%" width="400%" height="400%">
    <path d="M 471.921 324.307 L 568.199 324.307 L 568.199 395.766 L 471.921 395.766 L 471.921 324.307 Z" style="fill:white;"/>
    <path d="M 522.905 365.844 C 523.082 365.509 523.289 365.186 523.526 364.88" fill="black" stroke="none"/>
  </mask>
  <mask id="_mask_nYOgkDqGPPtCkkaYaBrRkitJr0uSOFm7" x="-200%" y="-200%" width="400%" height="400%">
    <path d="M 471.92 324.296 L 568.2 324.296 L 568.2 395.766 L 471.92 395.766 L 471.92 324.296 Z" style="fill:white;"/>
    <path d="M 533.374 373.75 C 533.007 374.123 532.608 374.443 532.185 374.71 C 529.643 376.314 526.26 375.994 524.053 373.75 C 523.668 373.359 523.341 372.931 523.072 372.478" fill="black" stroke="none"/>
  </mask>
  <mask id="_mask_ITJcURAnYfVhj905gdcC7Tg47hmB8JgD" x="-200%" y="-200%" width="400%" height="400%">
    <path d="M 471.913 324.286 L 568.198 324.286 L 568.198 395.763 L 471.913 395.763 L 471.913 324.286 Z" style="fill:white;"/>
    <path d="M 533.976 373.745 C 533.809 373.915 533.538 373.915 533.37 373.745 C 533.203 373.574 533.203 373.298 533.37 373.128 C 533.538 372.958 533.809 372.958 533.976 373.128 C 534.144 373.298 534.144 373.574 533.976 373.745 Z" fill="black" stroke="none"/>
  </mask>
  <mask id="_mask_7auzwICsIzMfLnlWxM0SzaO4fy7syqp3" x="-200%" y="-200%" width="400%" height="400%">
    <path d="M 471.925 324.3 L 568.201 324.3 L 568.201 395.768 L 471.925 395.768 L 471.925 324.3 Z" style="fill:white;"/>
    <path d="M 534.272 373.561 C 534.456 373.706 534.522 373.796 534.493 373.846 C 534.446 373.93 534.045 373.786 533.599 373.524 C 533.152 373.262 532.829 372.981 532.877 372.897 C 532.905 372.848 533.089 372.899 533.307 372.989" fill="black" stroke="none"/>
  </mask>
</svg>